{
  "integrationFolder": "cypress/integration",
  "supportFile": "cypress/support/index.ts",
  "videosFolder": "cypress/videos",
  "screenshotsFolder": "cypress/screenshots",
  "pluginsFile": "cypress/plugins/index.ts",
  "fixturesFolder": "cypress/fixtures",
  "baseUrl": "http://localhost:4200",
  "viewportWidth": 1920,
  "viewportHeight": 1080,
  "defaultCommandTimeout": 10000,
  "pageLoadTimeout": 30000,
  "tests": [
    "app.spec.js"
  ]
}
